circuit.vcd
$date
	Tue Nov 17 22:56:50 2020
$end
$version
	Icarus Verilog
$end
$timescale
	1ps
$end
$scope module circuit_tb $end
$var wire 32 ! y [31:0] $end
$var reg 1 " clk $end
$var reg 1 # en $end
$var reg 1 $ rst $end
$var reg 32 % x [31:0] $end
$var integer 32 & i [31:0] $end
$scope module c0 $end
$var wire 1 " clk $end
$var wire 1 # en $end
$var wire 1 $ rst $end
$var wire 32 ' x [31:0] $end
$var wire 32 ( y [31:0] $end
$var reg 32 ) acc [31:0] $end
$upscope $end
$upscope $end
$enddefinitions $end
#0
$dumpvars
bx )
bx (
bx '
b0 &
bx %
0$
0#
1"
bx !
$end
#1000
b0 !
b0 (
b0 )
1$
#5000
0"
#10000
1"
#11000
1#
b1000 %
b1000 '
0$
#15000
0"
#20000
b1000 !
b1000 (
b1000 )
1"
#21000
b1 &
0#
#25000
0"
#30000
1"
#31000
1#
b11111111111111111111111111101101 %
b11111111111111111111111111101101 '
#35000
0"
#40000
b11111111111111111111111111110101 !
b11111111111111111111111111110101 (
b11111111111111111111111111110101 )
1"
#41000
b10 &
0#
#45000
0"
#50000
1"
#51000
1#
#55000
0"
#60000
b11111111111111111111111111100010 !
b11111111111111111111111111100010 (
b11111111111111111111111111100010 )
1"
#61000
b11 &
0#
#65000
0"
#70000
1"
#71000
1#
b11111111111111111111111111110111 %
b11111111111111111111111111110111 '
#75000
0"
#80000
b11111111111111111111111111011001 !
b11111111111111111111111111011001 (
b11111111111111111111111111011001 )
1"
#81000
b100 &
0#
#85000
0"
#90000
1"
#91000
1#
b10001 %
b10001 '
#95000
0"
#100000
b11111111111111111111111111101010 !
b11111111111111111111111111101010 (
b11111111111111111111111111101010 )
1"
#101000
b101 &
0#
#105000
0"
#110000
1"
#111000
1#
#115000
0"
#120000
b11111111111111111111111111111011 !
b11111111111111111111111111111011 (
b11111111111111111111111111111011 )
1"
#121000
b110 &
0#
#125000
0"
#130000
1"
#131000
1#
b11111111111111111111111111110101 %
b11111111111111111111111111110101 '
#135000
0"
#140000
b11111111111111111111111111110000 !
b11111111111111111111111111110000 (
b11111111111111111111111111110000 )
1"
#141000
b111 &
0#
#145000
0"
#150000
1"
#151000
1#
b11111111111111111111111111110010 %
b11111111111111111111111111110010 '
#155000
0"
#160000
b11111111111111111111111111100010 !
b11111111111111111111111111100010 (
b11111111111111111111111111100010 )
1"
#161000
b1000 &
0#
#165000
0"
#170000
1"
#171000
1#
b1 %
b1 '
#175000
0"
#180000
b11111111111111111111111111100011 !
b11111111111111111111111111100011 (
b11111111111111111111111111100011 )
1"
#181000
b1001 &
0#
#185000
0"
#190000
1"
#191000
1#
b1001 %
b1001 '
#195000
0"
#200000
b11111111111111111111111111101100 !
b11111111111111111111111111101100 (
b11111111111111111111111111101100 )
1"
#201000
b1010 &
0#
#205000
0"
#210000
1"
#211000
1#
b10010 %
b10010 '
#215000
0"
#220000
b11111111111111111111111111111110 !
b11111111111111111111111111111110 (
b11111111111111111111111111111110 )
1"
#221000
b1011 &
0#
#225000
0"
#230000
1"
#231000
1#
b10001 %
b10001 '
#235000
0"
#240000
b1111 !
b1111 (
b1111 )
1"
#241000
b1100 &
0#
#245000
0"
#250000
1"
#251000
1#
b1001 %
b1001 '
#255000
0"
#260000
b11000 !
b11000 (
b11000 )
1"
#261000
b1101 &
0#
#265000
0"
#270000
1"
#271000
1#
b1100 %
b1100 '
#275000
0"
#280000
b100100 !
b100100 (
b100100 )
1"
#281000
b1110 &
0#
#285000
0"
#290000
1"
#291000
1#
b1001 %
b1001 '
#295000
0"
#300000
b101101 !
b101101 (
b101101 )
1"
#301000
b1111 &
0#
#305000
0"
#310000
1"
#311000
1#
b11111111111111111111111111110110 %
b11111111111111111111111111110110 '
#315000
0"
#320000
b100011 !
b100011 (
b100011 )
1"
#321000
b10000 &
0#
#325000
0"
#330000
1"
#331000
1#
b11111111111111111111111111101101 %
b11111111111111111111111111101101 '
#335000
0"
#340000
b10000 !
b10000 (
b10000 )
1"
#341000
b10001 &
0#
#345000
0"
#350000
1"
#351000
1#
b11111111111111111111111111110010 %
b11111111111111111111111111110010 '
#355000
0"
#360000
b10 !
b10 (
b10 )
1"
#361000
b10010 &
0#
#365000
0"
#370000
1"
#371000
1#
b101 %
b101 '
#375000
0"
#380000
b111 !
b111 (
b111 )
1"
#381000
b10011 &
0#
#385000
0"
#390000
1"
#391000
1#
b11111111111111111111111111111111 %
b11111111111111111111111111111111 '
#395000
0"
#400000
b110 !
b110 (
b110 )
1"
#401000
b10100 &
0#
#405000
0"
#410000
1"
#411000
1#
b11111111111111111111111111111110 %
b11111111111111111111111111111110 '
#415000
0"
#420000
b100 !
b100 (
b100 )
1"
#421000
b10101 &
0#
#425000
0"
#430000
1"
#431000
1#
b10011 %
b10011 '
#435000
0"
#440000
b10111 !
b10111 (
b10111 )
1"
#441000
b10110 &
0#
#445000
0"
#450000
1"
#451000
1#
b110 %
b110 '
#455000
0"
#460000
b11101 !
b11101 (
b11101 )
1"
#461000
b10111 &
0#
#465000
0"
#470000
1"
#471000
1#
b11111111111111111111111111111010 %
b11111111111111111111111111111010 '
#475000
0"
#480000
b10111 !
b10111 (
b10111 )
1"
#481000
b11000 &
0#
#485000
0"
#490000
1"
#491000
1#
b11111111111111111111111111111000 %
b11111111111111111111111111111000 '
#495000
0"
#500000
b1111 !
b1111 (
b1111 )
1"
#501000
b11001 &
0#
#505000
0"
#510000
1"
#511000
1#
b11111111111111111111111111111101 %
b11111111111111111111111111111101 '
#515000
0"
#520000
b1100 !
b1100 (
b1100 )
1"
#521000
b11010 &
0#
#525000
0"
#530000
1"
#531000
1#
b100 %
b100 '
#535000
0"
#540000
b10000 !
b10000 (
b10000 )
1"
#541000
b11011 &
0#
#545000
0"
#550000
1"
#551000
1#
b11111111111111111111111111111101 %
b11111111111111111111111111111101 '
#555000
0"
#560000
b1101 !
b1101 (
b1101 )
1"
#561000
b11100 &
0#
#565000
0"
#570000
1"
#571000
1#
b11111111111111111111111111111001 %
b11111111111111111111111111111001 '
#575000
0"
#580000
b110 !
b110 (
b110 )
1"
#581000
b11101 &
0#
#585000
0"
#590000
1"
#591000
1#
#595000
0"
#600000
b11111111111111111111111111111111 !
b11111111111111111111111111111111 (
b11111111111111111111111111111111 )
1"
#601000
b11110 &
0#
#605000
0"
#610000
1"
#611000
1#
b11111111111111111111111111110011 %
b11111111111111111111111111110011 '
#615000
0"
#620000
b11111111111111111111111111110010 !
b11111111111111111111111111110010 (
b11111111111111111111111111110010 )
1"
#621000
b11111 &
0#
#625000
0"
#630000
1"
#631000
1#
b1010 %
b1010 '
#635000
0"
#640000
b11111111111111111111111111111100 !
b11111111111111111111111111111100 (
b11111111111111111111111111111100 )
1"
#641000
b100000 &
0#
#645000
0"
#650000
1"
#651000
1#
b11111111111111111111111111111000 %
b11111111111111111111111111111000 '
#655000
0"
#660000
b11111111111111111111111111110100 !
b11111111111111111111111111110100 (
b11111111111111111111111111110100 )
1"
#661000
b100001 &
0#
#665000
0"
#670000
1"
#671000
1#
b10000 %
b10000 '
#675000
0"
#680000
b100 !
b100 (
b100 )
1"
#681000
b100010 &
0#
#685000
0"
#690000
1"
#691000
1#
b1110 %
b1110 '
#695000
0"
#700000
b10010 !
b10010 (
b10010 )
1"
#701000
b100011 &
0#
#705000
0"
#710000
1"
#711000
1#
b11111111111111111111111111110001 %
b11111111111111111111111111110001 '
#715000
0"
#720000
b11 !
b11 (
b11 )
1"
#721000
b100100 &
0#
#725000
0"
#730000
1"
#731000
1#
b11111111111111111111111111110010 %
b11111111111111111111111111110010 '
#735000
0"
#740000
b11111111111111111111111111110101 !
b11111111111111111111111111110101 (
b11111111111111111111111111110101 )
1"
#741000
b100101 &
0#
#745000
0"
#750000
1"
#751000
1#
b11111111111111111111111111111011 %
b11111111111111111111111111111011 '
#755000
0"
#760000
b11111111111111111111111111110000 !
b11111111111111111111111111110000 (
b11111111111111111111111111110000 )
1"
#761000
b100110 &
0#
#765000
0"
#770000
1"
#771000
1#
b11111111111111111111111111110001 %
b11111111111111111111111111110001 '
#775000
0"
#780000
b11111111111111111111111111100001 !
b11111111111111111111111111100001 (
b11111111111111111111111111100001 )
1"
#781000
b100111 &
0#
#785000
0"
#790000
1"
#791000
1#
b11111111111111111111111111110011 %
b11111111111111111111111111110011 '
#795000
0"
#800000
b11111111111111111111111111010100 !
b11111111111111111111111111010100 (
b11111111111111111111111111010100 )
1"
#801000
b101000 &
0#
#805000
0"
#810000
1"
#811000
1#
b1111 %
b1111 '
#815000
0"
#820000
b11111111111111111111111111100011 !
b11111111111111111111111111100011 (
b11111111111111111111111111100011 )
1"
#821000
b101001 &
0#
#825000
0"
#830000
1"
#831000
1#
b11111111111111111111111111110101 %
b11111111111111111111111111110101 '
#835000
0"
#840000
b11111111111111111111111111011000 !
b11111111111111111111111111011000 (
b11111111111111111111111111011000 )
1"
#841000
b101010 &
0#
#845000
0"
#850000
1"
#851000
1#
b11111111111111111111111111101110 %
b11111111111111111111111111101110 '
#855000
0"
#860000
b11111111111111111111111111000110 !
b11111111111111111111111111000110 (
b11111111111111111111111111000110 )
1"
#861000
b101011 &
0#
#865000
0"
#870000
1"
#871000
1#
b11111111111111111111111111110010 %
b11111111111111111111111111110010 '
#875000
0"
#880000
b11111111111111111111111110111000 !
b11111111111111111111111110111000 (
b11111111111111111111111110111000 )
1"
#881000
b101100 &
0#
#885000
0"
#890000
1"
#891000
1#
b1 %
b1 '
#895000
0"
#900000
b11111111111111111111111110111001 !
b11111111111111111111111110111001 (
b11111111111111111111111110111001 )
1"
#901000
b101101 &
0#
#905000
0"
#910000
1"
#911000
1#
b11111111111111111111111111101111 %
b11111111111111111111111111101111 '
#915000
0"
#920000
b11111111111111111111111110101000 !
b11111111111111111111111110101000 (
b11111111111111111111111110101000 )
1"
#921000
b101110 &
0#
#925000
0"
#930000
1"
#931000
1#
b111 %
b111 '
#935000
0"
#940000
b11111111111111111111111110101111 !
b11111111111111111111111110101111 (
b11111111111111111111111110101111 )
1"
#941000
b101111 &
0#
#945000
0"
#950000
1"
#951000
1#
b1010 %
b1010 '
#955000
0"
#960000
b11111111111111111111111110111001 !
b11111111111111111111111110111001 (
b11111111111111111111111110111001 )
1"
#961000
b110000 &
0#
#965000
0"
#970000
1"
#971000
1#
b11111111111111111111111111110110 %
b11111111111111111111111111110110 '
#975000
0"
#980000
b11111111111111111111111110101111 !
b11111111111111111111111110101111 (
b11111111111111111111111110101111 )
1"
#981000
b110001 &
0#
#985000
0"
#990000
1"
#991000
1#
b11111111111111111111111111111000 %
b11111111111111111111111111111000 '
#995000
0"
#1000000
b11111111111111111111111110100111 !
b11111111111111111111111110100111 (
b11111111111111111111111110100111 )
1"
#1001000
b110010 &
0#
#1005000
0"
#1010000
1"
#1011000
1#
b110 %
b110 '
#1015000
0"
#1020000
b11111111111111111111111110101101 !
b11111111111111111111111110101101 (
b11111111111111111111111110101101 )
1"
#1021000
b110011 &
0#
#1025000
0"
#1030000
1"
#1031000
1#
b1010 %
b1010 '
#1035000
0"
#1040000
b11111111111111111111111110110111 !
b11111111111111111111111110110111 (
b11111111111111111111111110110111 )
1"
#1041000
b110100 &
0#
#1045000
0"
#1050000
1"
#1051000
1#
b10001 %
b10001 '
#1055000
0"
#1060000
b11111111111111111111111111001000 !
b11111111111111111111111111001000 (
b11111111111111111111111111001000 )
1"
#1061000
b110101 &
0#
#1065000
0"
#1070000
1"
#1071000
1#
b11111111111111111111111111110100 %
b11111111111111111111111111110100 '
#1075000
0"
#1080000
b11111111111111111111111110111100 !
b11111111111111111111111110111100 (
b11111111111111111111111110111100 )
1"
#1081000
b110110 &
0#
#1085000
0"
#1090000
1"
#1091000
1#
b0 %
b0 '
#1095000
0"
#1100000
1"
#1101000
b110111 &
0#
#1105000
0"
#1110000
1"
#1111000
1#
b11111111111111111111111111111001 %
b11111111111111111111111111111001 '
#1115000
0"
#1120000
b11111111111111111111111110110101 !
b11111111111111111111111110110101 (
b11111111111111111111111110110101 )
1"
#1121000
b111000 &
0#
#1125000
0"
#1130000
1"
#1131000
1#
b111 %
b111 '
#1135000
0"
#1140000
b11111111111111111111111110111100 !
b11111111111111111111111110111100 (
b11111111111111111111111110111100 )
1"
#1141000
b111001 &
0#
#1145000
0"
#1150000
1"
#1151000
1#
b110 %
b110 '
#1155000
0"
#1160000
b11111111111111111111111111000010 !
b11111111111111111111111111000010 (
b11111111111111111111111111000010 )
1"
#1161000
b111010 &
0#
#1165000
0"
#1170000
1"
#1171000
1#
#1175000
0"
#1180000
b11111111111111111111111111001000 !
b11111111111111111111111111001000 (
b11111111111111111111111111001000 )
1"
#1181000
b111011 &
0#
#1185000
0"
#1190000
1"
#1191000
1#
#1195000
0"
#1200000
b11111111111111111111111111001110 !
b11111111111111111111111111001110 (
b11111111111111111111111111001110 )
1"
#1201000
b111100 &
0#
#1205000
0"
#1210000
1"
#1211000
1#
b11111111111111111111111111110100 %
b11111111111111111111111111110100 '
#1215000
0"
#1220000
b11111111111111111111111111000010 !
b11111111111111111111111111000010 (
b11111111111111111111111111000010 )
1"
#1221000
b111101 &
0#
#1225000
0"
#1230000
1"
#1231000
1#
b1110 %
b1110 '
#1235000
0"
#1240000
b11111111111111111111111111010000 !
b11111111111111111111111111010000 (
b11111111111111111111111111010000 )
1"
#1241000
b111110 &
0#
#1245000
0"
#1250000
1"
#1251000
1#
b11111111111111111111111111110011 %
b11111111111111111111111111110011 '
#1255000
0"
#1260000
b11111111111111111111111111000011 !
b11111111111111111111111111000011 (
b11111111111111111111111111000011 )
1"
#1261000
b111111 &
0#
#1265000
0"
#1270000
1"
#1271000
1#
b11111111111111111111111111111101 %
b11111111111111111111111111111101 '
#1275000
0"
#1280000
b11111111111111111111111111000000 !
b11111111111111111111111111000000 (
b11111111111111111111111111000000 )
1"
#1281000
b1000000 &
0#
#1285000
0"
#1290000
1"
#1291000
1#
b1 %
b1 '
#1295000
0"
#1300000
b11111111111111111111111111000001 !
b11111111111111111111111111000001 (
b11111111111111111111111111000001 )
1"
#1301000
b1000001 &
0#
#1305000
0"
#1310000
1"
#1311000
1#
b1111 %
b1111 '
#1315000
0"
#1320000
b11111111111111111111111111010000 !
b11111111111111111111111111010000 (
b11111111111111111111111111010000 )
1"
#1321000
b1000010 &
0#
#1325000
0"
#1330000
1"
#1331000
1#
b11111111111111111111111111111011 %
b11111111111111111111111111111011 '
#1335000
0"
#1340000
b11111111111111111111111111001011 !
b11111111111111111111111111001011 (
b11111111111111111111111111001011 )
1"
#1341000
b1000011 &
0#
#1345000
0"
#1350000
1"
#1351000
1#
b1110 %
b1110 '
#1355000
0"
#1360000
b11111111111111111111111111011001 !
b11111111111111111111111111011001 (
b11111111111111111111111111011001 )
1"
#1361000
b1000100 &
0#
#1365000
0"
#1370000
1"
#1371000
1#
b11111111111111111111111111110010 %
b11111111111111111111111111110010 '
#1375000
0"
#1380000
b11111111111111111111111111001011 !
b11111111111111111111111111001011 (
b11111111111111111111111111001011 )
1"
#1381000
b1000101 &
0#
#1385000
0"
#1390000
1"
#1391000
1#
b1 %
b1 '
#1395000
0"
#1400000
b11111111111111111111111111001100 !
b11111111111111111111111111001100 (
b11111111111111111111111111001100 )
1"
#1401000
b1000110 &
0#
#1405000
0"
#1410000
1"
#1411000
1#
b1101 %
b1101 '
#1415000
0"
#1420000
b11111111111111111111111111011001 !
b11111111111111111111111111011001 (
b11111111111111111111111111011001 )
1"
#1421000
b1000111 &
0#
#1425000
0"
#1430000
1"
#1431000
1#
b1 %
b1 '
#1435000
0"
#1440000
b11111111111111111111111111011010 !
b11111111111111111111111111011010 (
b11111111111111111111111111011010 )
1"
#1441000
b1001000 &
0#
#1445000
0"
#1450000
1"
#1451000
1#
b1110 %
b1110 '
#1455000
0"
#1460000
b11111111111111111111111111101000 !
b11111111111111111111111111101000 (
b11111111111111111111111111101000 )
1"
#1461000
b1001001 &
0#
#1465000
0"
#1470000
1"
#1471000
1#
b1000 %
b1000 '
#1475000
0"
#1480000
b11111111111111111111111111110000 !
b11111111111111111111111111110000 (
b11111111111111111111111111110000 )
1"
#1481000
b1001010 &
0#
#1485000
0"
#1490000
1"
#1491000
1#
b10011 %
b10011 '
#1495000
0"
#1500000
b11 !
b11 (
b11 )
1"
#1501000
b1001011 &
0#
#1505000
0"
#1510000
1"
#1511000
1#
b1111 %
b1111 '
#1515000
0"
#1520000
b10010 !
b10010 (
b10010 )
1"
#1521000
b1001100 &
0#
#1525000
0"
#1530000
1"
#1531000
1#
b0 %
b0 '
#1535000
0"
#1540000
1"
#1541000
b1001101 &
0#
#1545000
0"
#1550000
1"
#1551000
1#
b11111111111111111111111111110011 %
b11111111111111111111111111110011 '
#1555000
0"
#1560000
b101 !
b101 (
b101 )
1"
#1561000
b1001110 &
0#
#1565000
0"
#1570000
1"
#1571000
1#
#1575000
0"
#1580000
b11111111111111111111111111111000 !
b11111111111111111111111111111000 (
b11111111111111111111111111111000 )
1"
#1581000
b1001111 &
0#
#1585000
0"
#1590000
1"
#1591000
1#
b11111111111111111111111111110100 %
b11111111111111111111111111110100 '
#1595000
0"
#1600000
b11111111111111111111111111101100 !
b11111111111111111111111111101100 (
b11111111111111111111111111101100 )
1"
#1601000
b1010000 &
0#
#1605000
0"
#1610000
1"
#1611000
1#
b11111111111111111111111111101111 %
b11111111111111111111111111101111 '
#1615000
0"
#1620000
b11111111111111111111111111011011 !
b11111111111111111111111111011011 (
b11111111111111111111111111011011 )
1"
#1621000
b1010001 &
0#
#1625000
0"
#1630000
1"
#1631000
1#
b10001 %
b10001 '
#1635000
0"
#1640000
b11111111111111111111111111101100 !
b11111111111111111111111111101100 (
b11111111111111111111111111101100 )
1"
#1641000
b1010010 &
0#
#1645000
0"
#1650000
1"
#1651000
1#
b11111111111111111111111111110001 %
b11111111111111111111111111110001 '
#1655000
0"
#1660000
b11111111111111111111111111011101 !
b11111111111111111111111111011101 (
b11111111111111111111111111011101 )
1"
#1661000
b1010011 &
0#
#1665000
0"
#1670000
1"
#1671000
1#
b11111111111111111111111111111100 %
b11111111111111111111111111111100 '
#1675000
0"
#1680000
b11111111111111111111111111011001 !
b11111111111111111111111111011001 (
b11111111111111111111111111011001 )
1"
#1681000
b1010100 &
0#
#1685000
0"
#1690000
1"
#1691000
1#
b11111111111111111111111111111011 %
b11111111111111111111111111111011 '
#1695000
0"
#1700000
b11111111111111111111111111010100 !
b11111111111111111111111111010100 (
b11111111111111111111111111010100 )
1"
#1701000
b1010101 &
0#
#1705000
0"
#1710000
1"
#1711000
1#
b11111111111111111111111111110101 %
b11111111111111111111111111110101 '
#1715000
0"
#1720000
b11111111111111111111111111001001 !
b11111111111111111111111111001001 (
b11111111111111111111111111001001 )
1"
#1721000
b1010110 &
0#
#1725000
0"
#1730000
1"
#1731000
1#
b1010 %
b1010 '
#1735000
0"
#1740000
b11111111111111111111111111010011 !
b11111111111111111111111111010011 (
b11111111111111111111111111010011 )
1"
#1741000
b1010111 &
0#
#1745000
0"
#1750000
1"
#1751000
1#
b100 %
b100 '
#1755000
0"
#1760000
b11111111111111111111111111010111 !
b11111111111111111111111111010111 (
b11111111111111111111111111010111 )
1"
#1761000
b1011000 &
0#
#1765000
0"
#1770000
1"
#1771000
1#
b11111111111111111111111111111110 %
b11111111111111111111111111111110 '
#1775000
0"
#1780000
b11111111111111111111111111010101 !
b11111111111111111111111111010101 (
b11111111111111111111111111010101 )
1"
#1781000
b1011001 &
0#
#1785000
0"
#1790000
1"
#1791000
1#
b100 %
b100 '
#1795000
0"
#1800000
b11111111111111111111111111011001 !
b11111111111111111111111111011001 (
b11111111111111111111111111011001 )
1"
#1801000
b1011010 &
0#
#1805000
0"
#1810000
1"
#1811000
1#
b11111111111111111111111111111011 %
b11111111111111111111111111111011 '
#1815000
0"
#1820000
b11111111111111111111111111010100 !
b11111111111111111111111111010100 (
b11111111111111111111111111010100 )
1"
#1821000
b1011011 &
0#
#1825000
0"
#1830000
1"
#1831000
1#
b101 %
b101 '
#1835000
0"
#1840000
b11111111111111111111111111011001 !
b11111111111111111111111111011001 (
b11111111111111111111111111011001 )
1"
#1841000
b1011100 &
0#
#1845000
0"
#1850000
1"
#1851000
1#
b10010 %
b10010 '
#1855000
0"
#1860000
b11111111111111111111111111101011 !
b11111111111111111111111111101011 (
b11111111111111111111111111101011 )
1"
#1861000
b1011101 &
0#
#1865000
0"
#1870000
1"
#1871000
1#
b11111111111111111111111111110010 %
b11111111111111111111111111110010 '
#1875000
0"
#1880000
b11111111111111111111111111011101 !
b11111111111111111111111111011101 (
b11111111111111111111111111011101 )
1"
#1881000
b1011110 &
0#
#1885000
0"
#1890000
1"
#1891000
1#
b1 %
b1 '
#1895000
0"
#1900000
b11111111111111111111111111011110 !
b11111111111111111111111111011110 (
b11111111111111111111111111011110 )
1"
#1901000
b1011111 &
0#
#1905000
0"
#1910000
1"
#1911000
1#
b1101 %
b1101 '
#1915000
0"
#1920000
b11111111111111111111111111101011 !
b11111111111111111111111111101011 (
b11111111111111111111111111101011 )
1"
#1921000
b1100000 &
0#
#1925000
0"
#1930000
1"
#1931000
1#
b10011 %
b10011 '
#1935000
0"
#1940000
b11111111111111111111111111111110 !
b11111111111111111111111111111110 (
b11111111111111111111111111111110 )
1"
#1941000
b1100001 &
0#
#1945000
0"
#1950000
1"
#1951000
1#
b11111111111111111111111111111111 %
b11111111111111111111111111111111 '
#1955000
0"
#1960000
b11111111111111111111111111111101 !
b11111111111111111111111111111101 (
b11111111111111111111111111111101 )
1"
#1961000
b1100010 &
0#
#1965000
0"
#1970000
1"
#1971000
1#
b1101 %
b1101 '
#1975000
0"
#1980000
b1010 !
b1010 (
b1010 )
1"
#1981000
b1100011 &
0#
#1985000
0"
#1990000
1"
#1991000
1#
b11111111111111111111111111110100 %
b11111111111111111111111111110100 '
#1995000
0"
#2000000
b11111111111111111111111111111110 !
b11111111111111111111111111111110 (
b11111111111111111111111111111110 )
1"
#2001000
b1100100 &
0#
#2005000
0"
#2010000
1"
#2011000
1#
#2015000
0"
#2020000
b11111111111111111111111111110010 !
b11111111111111111111111111110010 (
b11111111111111111111111111110010 )
1"
#2025000
0"
#2030000
b11111111111111111111111111100110 !
b11111111111111111111111111100110 (
b11111111111111111111111111100110 )
1"
#2035000
0"
#2040000
b11111111111111111111111111011010 !
b11111111111111111111111111011010 (
b11111111111111111111111111011010 )
1"
#2045000
0"
#2050000
b11111111111111111111111111001110 !
b11111111111111111111111111001110 (
b11111111111111111111111111001110 )
1"
#2055000
0"
#2060000
b11111111111111111111111111000010 !
b11111111111111111111111111000010 (
b11111111111111111111111111000010 )
1"
#2065000
0"
#2070000
b11111111111111111111111110110110 !
b11111111111111111111111110110110 (
b11111111111111111111111110110110 )
1"
#2075000
0"
#2080000
b11111111111111111111111110101010 !
b11111111111111111111111110101010 (
b11111111111111111111111110101010 )
1"
#2085000
0"
#2090000
b11111111111111111111111110011110 !
b11111111111111111111111110011110 (
b11111111111111111111111110011110 )
1"
#2095000
0"
#2100000
b11111111111111111111111110010010 !
b11111111111111111111111110010010 (
b11111111111111111111111110010010 )
1"
#2105000
0"
#2110000
b11111111111111111111111110000110 !
b11111111111111111111111110000110 (
b11111111111111111111111110000110 )
1"
#2115000
0"
#2120000
b11111111111111111111111101111010 !
b11111111111111111111111101111010 (
b11111111111111111111111101111010 )
1"
